[gd_resource type="SpriteFrames" load_steps=5 format=2]

[ext_resource path="res://texturas/spritesheet.png" type="Texture" id=1]

[sub_resource type="AtlasTexture" id=2]
atlas = ExtResource( 1 )
region = Rect2( 32, 32, 16, 16 )

[sub_resource type="AtlasTexture" id=3]
atlas = ExtResource( 1 )
region = Rect2( 16, 32, 16, 16 )

[sub_resource type="AtlasTexture" id=4]
atlas = ExtResource( 1 )
region = Rect2( 0, 32, 16, 16 )

[resource]
animations = [ {
"frames": [ SubResource( 2 ) ],
"loop": true,
"name": "idle",
"speed": 5.0
}, {
"frames": [ SubResource( 3 ), SubResource( 4 ) ],
"loop": true,
"name": "walk",
"speed": 10.0
} ]
